{
  "overviewpaneldownloadlinksfailedcountvisible" : false,
  "clipboarddisabledwarningflashenabled" : true,
  "activepluginconfigpanel" : "jd.plugins.hoster.OneCloudTwoNet/1cloud2.net",
  "horizontalscrollbarsindownloadtableenabled" : false,
  "overviewpaneldownloadrunningdownloadscountvisible" : true,
  "downloadview" : "ALL",
  "linkpropertiespaneldownloadpasswordvisible" : true,
  "downloadfolderchooserdialogsubfolder" : "AUTO",
  "speedmetervisible" : true,
  "premiumalertetacolumnenabled" : false,
  "overviewpaneldownloadpackagecountvisible" : true,
  "datetimeformataccountmanagerexpiredatecolumn" : null,
  "password" : "",
  "linkpropertiespanelfilenamevisible" : true,
  "titlepattern" : "|#TITLE|| - #SPEED/s|| - #UPDATENOTIFY|",
  "filterhighlightenabled" : true,
  "linkpropertiespanelchecksumvisible" : true,
  "overviewpaneltotalinfovisible" : true,
  "downloadspropertiespanelsavetovisible" : true,
  "packagesbackgroundhighlightenabled" : true,
  "overviewpaneldownloadlinkcountvisible" : true,
  "downloadspropertiespanelpackagenamevisible" : true,
  "newdialogframestate" : "TO_FRONT",
  "used3d" : false,
  "overviewpaneldownloadlinksfinishedcountvisible" : false,
  "ulbannerenabled" : false,
  "extendedvariantnamesenabled" : false,
  "downloadviewrefresh" : 500,
  "overviewpanelsmartinfovisible" : true,
  "datetimeformatdownloadlistaddeddatecolumn" : null,
  "presentationmodeenabled" : false,
  "availablecolumntextvisible" : false,
  "newlinksactionv2" : "SWITCH",
  "bannerenabled" : false,
  "showfullhostname" : false,
  "taskbarflashenabled" : true,
  "overviewpanellinkgrabberstatusonlinevisible" : true,
  "prioritycolumnautoshowenabled" : true,
  "linkpropertiespanelcommentvisible" : true,
  "clipboardmonitored" : true,
  "bannerchangetimestamp" : 1501326585745,
  "donatebuttonstate" : "AUTO_HIDDEN",
  "filecountinsizecolumnvisible" : true,
  "clipboardskipmode" : "NEVER",
  "premiumexpirewarningenabled" : false,
  "downloadstablerefreshinterval" : 1000,
  "overviewpaneldownloadpanelincludedisabledlinks" : true,
  "datetimeformatdownloadlistmodifieddatecolumn" : null,
  "tablewraparoundenabled" : true,
  "specialdealoboomdialogvisibleonstartup" : false,
  "switchtolinkgrabbertabonnewlinksaddedenabled" : true,
  "tooltipenabled" : true,
  "statusbaraddpremiumbuttonvisible" : false,
  "captchadialogborderaroundimageenabled" : true,
  "tablemouseoverhighlightenabled" : true,
  "linkpropertiespanelsavetovisible" : true,
  "downloadcontrolcolumnautoshowenabled" : true,
  "overviewpanellinkgrabberlinkscountvisible" : true,
  "clipboardmonitorprocesshtmlflavor" : true,
  "packagedoubleclickaction" : "OPEN_FOLDER",
  "linkpropertiespaneldownloadfromvisible" : false,
  "overviewpanelselectedinfovisible" : true,
  "premiumalerttaskcolumnenabled" : false,
  "sortcolumnhighlightenabled" : true,
  "startbuttonactioninlinkgrabbercontext" : "ADD_ALL_LINKS_AND_START_DOWNLOADS",
  "downloadfolderchooserdefaultpath" : "CURRENT_PATH",
  "colorediconsfordisabledhostercolumnenabled" : true,
  "downloadspropertiespanelcommentvisible" : true,
  "premiumalertspeedcolumnenabled" : false,
  "overviewpaneldownloadtotalbytesvisible" : true,
  "captchadialoguniquepositionbyhosterenabled" : false,
  "overviewpanellinkgrabberpackagecountvisible" : true,
  "confirmincompletearchiveaction" : "ASK",
  "windowswindowmanagerforegroundlocktimeout" : 0,
  "datetimeformatdownloadlistfinisheddatecolumn" : null,
  "bypassallrlydeletedialogsenabled" : false,
  "linkgrabbertabpropertiespanelvisible" : false,
  "downloadstabpropertiespanelvisible" : false,
  "configviewvisible" : false,
  "skipclipboardmonitorfirstround" : false,
  "selecteddownloadsearchcategory" : "FILENAME",
  "logviewvisible" : false,
  "overviewpaneldownloadetavisible" : true,
  "premiumdisabledwarningflashenabled" : false,
  "captchascalefactor" : 100,
  "savedownloadviewcrosssessionenabled" : false,
  "shortcutforcaptchadialogrefresh" : "pressed F5",
  "overviewpanellinkgrabberstatusunknownvisible" : true,
  "myjdownloaderviewvisible" : false,
  "downloadspropertiespanelchecksumvisible" : true,
  "downloadspropertiespanelfilenamevisible" : false,
  "speedmetertimeframe" : 30000,
  "mainwindowalwaysontop" : false,
  "windowstaskbarprogressdisplay" : "TOTAL_PROGRESS",
  "overviewpaneldownloadconnectionsvisible" : true,
  "helpdialogsenabled" : true,
  "lookandfeeltheme" : "DEFAULT",
  "linkpropertiespanelarchivepasswordvisible" : true,
  "downloadspropertiespaneldownloadfromvisible" : false,
  "horizontalscrollbarsinlinkgrabbertableenabled" : false,
  "linkdoubleclickaction" : "OPEN_FILE",
  "overviewpanellinkgrabberstatusofflinevisible" : true,
  "balloonnotificationenabled" : true,
  "activeconfigpanel" : "jd.gui.swing.jdgui.views.settings.panels.advanced.AdvancedSettings",
  "donationnotifyid" : "DEFAULT.2018",
  "primarytablesorterdesc" : true,
  "speedmeterframespersecond" : 4,
  "linkpropertiespanelpackagenamevisible" : true,
  "premiumstatusbardisabledaccountexpire" : 14,
  "customtablerowheight" : 0,
  "passwordprotectionenabled" : false,
  "specialdealsenabled" : false,
  "overviewpaneldownloadspeedvisible" : true,
  "lastiffileexists" : "SKIP_FILE",
  "premiumstatusbardisplay" : "GROUP_BY_ACCOUNT_TYPE",
  "downloadpaneloverviewsettingsvisible" : false,
  "maxsizeunit" : "TiB",
  "tablealternaterowhighlightenabled" : true,
  "newlinksaction" : "NOTHING",
  "captchadebugmodeenabled" : false,
  "tooltipdelay" : 2000,
  "overviewpaneldownloadbytesloadedvisible" : true,
  "hatecaptchastextincaptchadialogvisible" : false,
  "speedinwindowtitle" : "WHEN_WINDOW_IS_MINIMIZED",
  "selectedlinkgrabbersearchcategory" : "FILENAME",
  "overviewpanellinkgrabbertotalbytesvisible" : true,
  "downloadtaboverviewvisible" : false,
  "rlywarnlevel" : "NORMAL",
  "overviewpanellinkgrabberhostercountvisible" : true,
  "twostepctrlaselectionenabled" : true,
  "downloadspropertiespaneldownloadpasswordvisible" : true,
  "renameactionregexenabled" : false,
  "dialogdefaulttimeoutinms" : 20000,
  "propertiespanelheightnormalized" : false,
  "overviewpanellinkgrabberincludedisabledlinks" : true,
  "macdockprogressdisplay" : "TOTAL_PROGRESS",
  "hidesinglechildpackages" : false,
  "linkgrabbertaboverviewvisible" : false,
  "linkgrabberbottombarposition" : "SOUTH",
  "overviewpaneldownloadlinksskippedcountvisible" : false,
  "windowswindowmanageraltkeyworkaroundenabled" : true,
  "updatebuttonflashingenabled" : true,
  "customlookandfeelclass" : null,
  "linkgrabbersidebarvisible" : true,
  "overviewpanelvisibleonlyinfovisible" : true,
  "donatebuttonlatestautochange" : 1630105459152,
  "filechooserview" : "DETAILS",
  "downloadspropertiespanelarchivepasswordvisible" : true
}